…
``` r
?penguins
```

# 1. Tidy data

- one column, one variable
- one row, one observation
- one cell, one value

``` r
penguins
```

    # A tibble: 344 × 8
       species island    bill_length_mm bill_depth_mm flipper_…¹ body_…² sex    year
       <fct>   <fct>              <dbl>         <dbl>      <int>   <int> <fct> <int>
     1 Adelie  Torgersen           39.1          18.7        181    3750 male   2007
     2 Adelie  Torgersen           39.5          17.4        186    3800 fema…  2007
     3 Adelie  Torgersen           40.3          18          195    3250 fema…  2007
     4 Adelie  Torgersen           NA            NA           NA      NA <NA>   2007
     5 Adelie  Torgersen           36.7          19.3        193    3450 fema…  2007
     6 Adelie  Torgersen           39.3          20.6        190    3650 male   2007
     7 Adelie  Torgersen           38.9          17.8        181    3625 fema…  2007
     8 Adelie  Torgersen           39.2          19.6        195    4675 male   2007
     9 Adelie  Torgersen           34.1          18.1        193    3475 <NA>   2007
    10 Adelie  Torgersen           42            20.2        190    4250 <NA>   2007
    # … with 334 more rows, and abbreviated variable names ¹​flipper_length_mm,
    #   ²​body_mass_g
…
``` r
## use inner piping inside mutate
penguins |>  
  mutate(
    species_new = species |>
      str_to_title() |> 
      str_to_sentence() |> 
      str_to_upper() |> 
      str_to_lower()
  ) |>  
  select(species, species_new)
```

    # A tibble: 344 × 2
       species species_new
       <fct>   <chr>      
     1 Adelie  adelie     
     2 Adelie  adelie     
     3 Adelie  adelie     
     4 Adelie  adelie     
     5 Adelie  adelie     
     6 Adelie  adelie     
     7 Adelie  adelie     
     8 Adelie  adelie     
     9 Adelie  adelie     
    10 Adelie  adelie     
    # … with 334 more rows

# 3. Rename variables on select()

- quick renaming on the same function
- no separate call for rename()

``` r
penguins |> 
  rename(species_name = species, 
         island_name = island)
```

    # A tibble: 344 × 8
       species_name island_name bill_length_mm bill_de…¹ flipp…² body_…³ sex    year
       <fct>        <fct>                <dbl>     <dbl>   <int>   <int> <fct> <int>
     1 Adelie       Torgersen             39.1      18.7     181    3750 male   2007
     2 Adelie       Torgersen             39.5      17.4     186    3800 fema…  2007
     3 Adelie       Torgersen             40.3      18       195    3250 fema…  2007
     4 Adelie       Torgersen             NA        NA        NA      NA <NA>   2007
     5 Adelie       Torgersen             36.7      19.3     193    3450 fema…  2007
     6 Adelie       Torgersen             39.3      20.6     190    3650 male   2007
     7 Adelie       Torgersen             38.9      17.8     181    3625 fema…  2007
     8 Adelie       Torgersen             39.2      19.6     195    4675 male   2007
     9 Adelie       Torgersen             34.1      18.1     193    3475 <NA>   2007
    10 Adelie       Torgersen             42        20.2     190    4250 <NA>   2007
    # … with 334 more rows, and abbreviated variable names ¹​bill_depth_mm,
    #   ²​flipper_length_mm, ³​body_mass_g

``` r
penguins |> 
  select(species_name = species, island_name = island)
```

    # A tibble: 344 × 2
       species_name island_name
       <fct>        <fct>      
     1 Adelie       Torgersen  
     2 Adelie       Torgersen  
     3 Adelie       Torgersen  
     4 Adelie       Torgersen  
     5 Adelie       Torgersen  
     6 Adelie       Torgersen  
     7 Adelie       Torgersen  
     8 Adelie       Torgersen  
     9 Adelie       Torgersen  
    10 Adelie       Torgersen  
    # … with 334 more rows
# 4. Operations across() multiple columns at once

- tidy evaluation can be used: like everything(), starts_with()
- for multiple elements, c() need to be used.

``` r
penguins |>  
  mutate(
    bill_length_mm = as.character(bill_length_mm), 
    bill_depth_mm = as.character(bill_depth_mm), 
    flipper_length_mm = as.character(flipper_length_mm)
  )
```

    # A tibble: 344 × 8
       species island    bill_length_mm bill_depth_mm flipper_…¹ body_…² sex    year
       <fct>   <fct>     <chr>          <chr>         <chr>        <int> <fct> <int>
     1 Adelie  Torgersen 39.1           18.7          181           3750 male   2007
     2 Adelie  Torgersen 39.5           17.4          186           3800 fema…  2007
     3 Adelie  Torgersen 40.3           18            195           3250 fema…  2007
     4 Adelie  Torgersen <NA>           <NA>          <NA>            NA <NA>   2007
     5 Adelie  Torgersen 36.7           19.3          193           3450 fema…  2007
     6 Adelie  Torgersen 39.3           20.6          190           3650 male   2007
     7 Adelie  Torgersen 38.9           17.8          181           3625 fema…  2007
     8 Adelie  Torgersen 39.2           19.6          195           4675 male   2007
     9 Adelie  Torgersen 34.1           18.1          193           3475 <NA>   2007
    10 Adelie  Torgersen 42             20.2          190           4250 <NA>   2007
    # … with 334 more rows, and abbreviated variable names ¹​flipper_length_mm,
    #   ²​body_mass_g
…
# 5. rowwise() & c_across() for row-wise operations

``` r
## find row means for bill_length_mm, bill_depth_mm, and flipper_length_mm
penguins |>  
  rowwise() |>
  mutate(means = mean(c(bill_length_mm, bill_depth_mm, flipper_length_mm), na.rm = TRUE))
```

    # A tibble: 344 × 9
    # Rowwise: 
       species island    bill_length_mm bill_dep…¹ flipp…² body_…³ sex    year means
       <fct>   <fct>              <dbl>      <dbl>   <int>   <int> <fct> <int> <dbl>
     1 Adelie  Torgersen           39.1       18.7     181    3750 male   2007  79.6
     2 Adelie  Torgersen           39.5       17.4     186    3800 fema…  2007  81.0
     3 Adelie  Torgersen           40.3       18       195    3250 fema…  2007  84.4
     4 Adelie  Torgersen           NA         NA        NA      NA <NA>   2007 NaN  
     5 Adelie  Torgersen           36.7       19.3     193    3450 fema…  2007  83  
     6 Adelie  Torgersen           39.3       20.6     190    3650 male   2007  83.3
     7 Adelie  Torgersen           38.9       17.8     181    3625 fema…  2007  79.2
     8 Adelie  Torgersen           39.2       19.6     195    4675 male   2007  84.6
     9 Adelie  Torgersen           34.1       18.1     193    3475 <NA>   2007  81.7
    10 Adelie  Torgersen           42         20.2     190    4250 <NA>   2007  84.1
    # … with 334 more rows, and abbreviated variable names ¹​bill_depth_mm,
    #   ²​flipper_length_mm, ³​body_mass_g

``` r
## find row sums for bill_length_mm, bill_depth_mm, and flipper_length_mm
penguins |> 
  rowwise() |>
  mutate(sums = sum(c(bill_length_mm, bill_depth_mm, flipper_length_mm), na.rm = TRUE))
```

    # A tibble: 344 × 9
    # Rowwise: 
       species island    bill_length_mm bill_dep…¹ flipp…² body_…³ sex    year  sums
       <fct>   <fct>              <dbl>      <dbl>   <int>   <int> <fct> <int> <dbl>
     1 Adelie  Torgersen           39.1       18.7     181    3750 male   2007  239.
     2 Adelie  Torgersen           39.5       17.4     186    3800 fema…  2007  243.
     3 Adelie  Torgersen           40.3       18       195    3250 fema…  2007  253.
     4 Adelie  Torgersen           NA         NA        NA      NA <NA>   2007    0 
     5 Adelie  Torgersen           36.7       19.3     193    3450 fema…  2007  249 
     6 Adelie  Torgersen           39.3       20.6     190    3650 male   2007  250.
     7 Adelie  Torgersen           38.9       17.8     181    3625 fema…  2007  238.
     8 Adelie  Torgersen           39.2       19.6     195    4675 male   2007  254.
     9 Adelie  Torgersen           34.1       18.1     193    3475 <NA>   2007  245.
    10 Adelie  Torgersen           42         20.2     190    4250 <NA>   2007  252.
    # … with 334 more rows, and abbreviated variable names ¹​bill_depth_mm,
    #   ²​flipper_length_mm, ³​body_mass_g

Use `c_across()` for tidy evaluation like everything(), starts_with().

``` r
## find row sums for bill_length_mm, bill_depth_mm, and flipper_length_mm
penguins |> 
  rowwise() |>
  mutate(sums = sum(c_across(bill_length_mm:flipper_length_mm), na.rm = TRUE))
```

    # A tibble: 344 × 9
    # Rowwise: 
       species island    bill_length_mm bill_dep…¹ flipp…² body_…³ sex    year  sums
       <fct>   <fct>              <dbl>      <dbl>   <int>   <int> <fct> <int> <dbl>
     1 Adelie  Torgersen           39.1       18.7     181    3750 male   2007  239.
     2 Adelie  Torgersen           39.5       17.4     186    3800 fema…  2007  243.
     3 Adelie  Torgersen           40.3       18       195    3250 fema…  2007  253.
     4 Adelie  Torgersen           NA         NA        NA      NA <NA>   2007    0 
     5 Adelie  Torgersen           36.7       19.3     193    3450 fema…  2007  249 
     6 Adelie  Torgersen           39.3       20.6     190    3650 male   2007  250.
     7 Adelie  Torgersen           38.9       17.8     181    3625 fema…  2007  238.
     8 Adelie  Torgersen           39.2       19.6     195    4675 male   2007  254.
     9 Adelie  Torgersen           34.1       18.1     193    3475 <NA>   2007  245.
    10 Adelie  Torgersen           42         20.2     190    4250 <NA>   2007  252.
    # … with 334 more rows, and abbreviated variable names ¹​bill_depth_mm,
    #   ²​flipper_length_mm, ³​body_mass_g

``` r
## find row sums for bill_length_mm, bill_depth_mm, and flipper_length_mm
penguins |> 
  rowwise() |>
  mutate(sums = sum(c_across(ends_with("_mm")), na.rm = TRUE))
```

    # A tibble: 344 × 9
    # Rowwise: 
       species island    bill_length_mm bill_dep…¹ flipp…² body_…³ sex    year  sums
       <fct>   <fct>              <dbl>      <dbl>   <int>   <int> <fct> <int> <dbl>
     1 Adelie  Torgersen           39.1       18.7     181    3750 male   2007  239.
     2 Adelie  Torgersen           39.5       17.4     186    3800 fema…  2007  243.
     3 Adelie  Torgersen           40.3       18       195    3250 fema…  2007  253.
     4 Adelie  Torgersen           NA         NA        NA      NA <NA>   2007    0 
     5 Adelie  Torgersen           36.7       19.3     193    3450 fema…  2007  249 
     6 Adelie  Torgersen           39.3       20.6     190    3650 male   2007  250.
     7 Adelie  Torgersen           38.9       17.8     181    3625 fema…  2007  238.
     8 Adelie  Torgersen           39.2       19.6     195    4675 male   2007  254.
     9 Adelie  Torgersen           34.1       18.1     193    3475 <NA>   2007  245.
    10 Adelie  Torgersen           42         20.2     190    4250 <NA>   2007  252.
    # … with 334 more rows, and abbreviated variable names ¹​bill_depth_mm,
    #   ²​flipper_length_mm, ³​body_mass_g
…
